%YAML 1.1
%TAG !u! tag:unity3d.com,2011:
--- !u!114 &11400000
MonoBehaviour:
  m_ObjectHideFlags: 0
  m_CorrespondingSourceObject: {fileID: 0}
  m_PrefabInstance: {fileID: 0}
  m_PrefabAsset: {fileID: 0}
  m_GameObject: {fileID: 0}
  m_Enabled: 1
  m_EditorHideFlags: 0
  m_Script: {fileID: 11500000, guid: 0863bf92b4fcc45b0b9267325249bf0f, type: 3}
  m_Name: NotificationSettings
  m_EditorClassIdentifier: 
  toolbarInt: 0
  iOSNotificationEditorSettingsValues:
    keys:
    - UnityNotificationRequestAuthorizationOnAppLaunch
    - UnityNotificationDefaultAuthorizationOptions
    - UnityAPSReleaseEnvironment
    - UnityNotificationRequestAuthorizationForRemoteNotificationsOnAppLaunch
    - UnityRemoteNotificationForegroundPresentationOptions
    - UnityUseLocationNotificationTrigger
    values:
    - True
    - -1
    - False
    - False
    - -1
    - False
  AndroidNotificationEditorSettingsValues:
    keys:
    - UnityNotificationAndroidRescheduleOnDeviceRestart
    values:
    - True
  TrackedResourceAssets: []
